module github.com/ipfs/kubo

require (
	bazil.org/fuse v0.0.0-20200117225306-7b5117fecadc
	contrib.go.opencensus.io/exporter/prometheus v0.4.2
	github.com/benbjohnson/clock v1.3.0
	github.com/blang/semver/v4 v4.0.0
	github.com/cenkalti/backoff/v4 v4.2.0
	github.com/ceramicnetwork/go-dag-jose v0.1.0
	github.com/cheggaaa/pb v1.0.29
	github.com/coreos/go-systemd/v22 v22.5.0
	github.com/dustin/go-humanize v1.0.1
	github.com/elgris/jsondiff v0.0.0-20160530203242-765b5c24c302
	github.com/facebookgo/atomicfile v0.0.0-20151019160806-2de1f203e7d5
	github.com/fsnotify/fsnotify v1.6.0
	github.com/gogo/protobuf v1.3.2
	github.com/google/uuid v1.3.0
	github.com/hashicorp/go-multierror v1.1.1
	github.com/ipfs/boxo v0.8.0-rc4
	github.com/ipfs/go-block-format v0.1.2
	github.com/ipfs/go-cid v0.4.1
	github.com/ipfs/go-cidutil v0.1.0
	github.com/ipfs/go-datastore v0.6.0
	github.com/ipfs/go-delegated-routing v0.8.0
	github.com/ipfs/go-detect-race v0.0.1
	github.com/ipfs/go-ds-badger v0.3.0
	github.com/ipfs/go-ds-flatfs v0.5.1
	github.com/ipfs/go-ds-leveldb v0.5.0
	github.com/ipfs/go-ds-measure v0.2.0
	github.com/ipfs/go-fs-lock v0.0.7
	github.com/ipfs/go-graphsync v0.14.4
	github.com/ipfs/go-ipfs-cmds v0.9.0
	github.com/ipfs/go-ipld-format v0.4.0
	github.com/ipfs/go-ipld-git v0.1.1
	github.com/ipfs/go-ipld-legacy v0.1.1
	github.com/ipfs/go-log v1.0.5
	github.com/ipfs/go-log/v2 v2.5.1
	github.com/ipfs/go-metrics-interface v0.0.1
	github.com/ipfs/go-metrics-prometheus v0.0.2
	github.com/ipfs/go-unixfsnode v1.6.0
	github.com/ipld/go-codec-dagpb v1.6.0
	github.com/ipld/go-ipld-prime v0.20.0
	github.com/jbenet/go-random v0.0.0-20190219211222-123a90aedc0c
	github.com/jbenet/go-temp-err-catcher v0.1.0
	github.com/jbenet/goprocess v0.1.4
	github.com/julienschmidt/httprouter v1.3.0
	github.com/libp2p/go-doh-resolver v0.4.0
	github.com/libp2p/go-libp2p v0.26.4
	github.com/libp2p/go-libp2p-http v0.5.0
	github.com/libp2p/go-libp2p-kad-dht v0.22.0
	github.com/libp2p/go-libp2p-kbucket v0.5.0
	github.com/libp2p/go-libp2p-pubsub v0.9.3
	github.com/libp2p/go-libp2p-pubsub-router v0.6.0
	github.com/libp2p/go-libp2p-record v0.2.0
	github.com/libp2p/go-libp2p-routing-helpers v0.6.2
	github.com/libp2p/go-libp2p-testing v0.12.0
	github.com/libp2p/go-socket-activation v0.1.0
	github.com/mitchellh/go-homedir v1.1.0
	github.com/multiformats/go-multiaddr v0.9.0
	github.com/multiformats/go-multiaddr-dns v0.3.1
	github.com/multiformats/go-multibase v0.2.0
	github.com/multiformats/go-multicodec v0.8.1
	github.com/multiformats/go-multihash v0.2.1
	github.com/opentracing/opentracing-go v1.2.0
	github.com/pbnjay/memory v0.0.0-20210728143218-7b4eea64cf58
	github.com/pkg/errors v0.9.1
	github.com/prometheus/client_golang v1.14.0
	github.com/stretchr/testify v1.8.2
	github.com/syndtr/goleveldb v1.0.1-0.20210819022825-2ae1ddf74ef7
	github.com/tidwall/gjson v1.14.4
	github.com/tidwall/sjson v1.2.5
	github.com/whyrusleeping/go-sysinfo v0.0.0-20190219211824-4a357d4b90b1
	github.com/whyrusleeping/multiaddr-filter v0.0.0-20160516205228-e903e4adabd7
	go.opencensus.io v0.24.0
	go.opentelemetry.io/contrib/instrumentation/net/http/otelhttp v0.40.0
	go.opentelemetry.io/otel v1.14.0
	go.opentelemetry.io/otel/exporters/jaeger v1.14.0
	go.opentelemetry.io/otel/exporters/otlp/otlptrace/otlptracegrpc v1.14.0
	go.opentelemetry.io/otel/exporters/otlp/otlptrace/otlptracehttp v1.14.0
	go.opentelemetry.io/otel/exporters/stdout/stdouttrace v1.14.0
	go.opentelemetry.io/otel/exporters/zipkin v1.14.0
	go.opentelemetry.io/otel/sdk v1.14.0
	go.opentelemetry.io/otel/trace v1.14.0
	go.uber.org/dig v1.16.1
	go.uber.org/fx v1.19.2
	go.uber.org/zap v1.24.0
	golang.org/x/crypto v0.7.0
	golang.org/x/mod v0.10.0
	golang.org/x/sync v0.1.0
	golang.org/x/sys v0.7.0
)

require (
	github.com/AndreasBriese/bbloom v0.0.0-20190825152654-46b345b51c96 // indirect
	github.com/Kubuxu/go-os-helper v0.0.1 // indirect
	github.com/alecthomas/units v0.0.0-20211218093645-b94a6e3cc137 // indirect
	github.com/alexbrainman/goissue34681 v0.0.0-20191006012335-3fc7a47baff5 // indirect
	github.com/beorn7/perks v1.0.1 // indirect
	github.com/cenkalti/backoff v2.2.1+incompatible // indirect
	github.com/cespare/xxhash v1.1.0 // indirect
	github.com/cespare/xxhash/v2 v2.2.0 // indirect
	github.com/containerd/cgroups v1.0.4 // indirect
	github.com/crackcomm/go-gitignore v0.0.0-20170627025303-887ab5e44cc3 // indirect
	github.com/cskr/pubsub v1.0.2 // indirect
	github.com/davecgh/go-spew v1.1.1 // indirect
	github.com/davidlazar/go-crypto v0.0.0-20200604182044-b73af7476f6c // indirect
	github.com/decred/dcrd/dcrec/secp256k1/v4 v4.1.0 // indirect
	github.com/dgraph-io/badger v1.6.2 // indirect
	github.com/dgraph-io/ristretto v0.0.2 // indirect
	github.com/docker/go-units v0.5.0 // indirect
	github.com/elastic/gosigar v0.14.2 // indirect
	github.com/felixge/httpsnoop v1.0.3 // indirect
	github.com/flynn/noise v1.0.0 // indirect
	github.com/francoispqt/gojay v1.2.13 // indirect
	github.com/gabriel-vasile/mimetype v1.4.1 // indirect
	github.com/go-kit/log v0.2.1 // indirect
	github.com/go-logfmt/logfmt v0.5.1 // indirect
	github.com/go-logr/logr v1.2.3 // indirect
	github.com/go-logr/stdr v1.2.2 // indirect
	github.com/go-task/slim-sprig v0.0.0-20210107165309-348f09dbbbc0 // indirect
	github.com/godbus/dbus/v5 v5.1.0 // indirect
	github.com/golang/groupcache v0.0.0-20210331224755-41bb18bfe9da // indirect
	github.com/golang/mock v1.6.0 // indirect
	github.com/golang/protobuf v1.5.2 // indirect
	github.com/golang/snappy v0.0.4 // indirect
	github.com/google/gopacket v1.1.19 // indirect
	github.com/google/pprof v0.0.0-20221203041831-ce31453925ec // indirect
	github.com/gorilla/mux v1.8.0 // indirect
	github.com/grpc-ecosystem/grpc-gateway/v2 v2.7.0 // indirect
	github.com/hannahhoward/go-pubsub v0.0.0-20200423002714-8d62886cc36e // indirect
	github.com/hashicorp/errwrap v1.1.0 // indirect
	github.com/hashicorp/golang-lru v0.5.4 // indirect
	github.com/hashicorp/golang-lru/v2 v2.0.1 // indirect
	github.com/huin/goupnp v1.0.3 // indirect
	github.com/ipfs/bbloom v0.0.4 // indirect
	github.com/ipfs/go-bitfield v1.1.0 // indirect
	github.com/ipfs/go-ipfs-blockstore v1.3.0 // indirect
	github.com/ipfs/go-ipfs-delay v0.0.1 // indirect
	github.com/ipfs/go-ipfs-ds-help v1.1.0 // indirect
	github.com/ipfs/go-ipfs-pq v0.0.3 // indirect
	github.com/ipfs/go-ipfs-redirects-file v0.1.1 // indirect
	github.com/ipfs/go-ipfs-util v0.0.2 // indirect
	github.com/ipfs/go-ipld-cbor v0.0.6 // indirect
	github.com/ipfs/go-libipfs v0.7.0 // indirect
	github.com/ipfs/go-peertaskqueue v0.8.1 // indirect
	github.com/ipld/edelweiss v0.2.0 // indirect
	github.com/jackpal/go-nat-pmp v1.0.2 // indirect
	github.com/klauspost/compress v1.15.12 // indirect
	github.com/klauspost/cpuid/v2 v2.2.4 // indirect
	github.com/koron/go-ssdp v0.0.3 // indirect
	github.com/libp2p/go-buffer-pool v0.1.0 // indirect
	github.com/libp2p/go-cidranger v1.1.0 // indirect
	github.com/libp2p/go-flow-metrics v0.1.0 // indirect
	github.com/libp2p/go-libp2p-asn-util v0.2.0 // indirect
	github.com/libp2p/go-libp2p-gostream v0.6.0 // indirect
	github.com/libp2p/go-libp2p-xor v0.1.0 // indirect
	github.com/libp2p/go-mplex v0.7.0 // indirect
	github.com/libp2p/go-msgio v0.3.0 // indirect
	github.com/libp2p/go-nat v0.1.0 // indirect
	github.com/libp2p/go-netroute v0.2.1 // indirect
	github.com/libp2p/go-reuseport v0.2.0 // indirect
	github.com/libp2p/go-yamux/v4 v4.0.0 // indirect
	github.com/libp2p/zeroconf/v2 v2.2.0 // indirect
	github.com/marten-seemann/tcp v0.0.0-20210406111302-dfbc87cc63fd // indirect
	github.com/mattn/go-colorable v0.1.4 // indirect
	github.com/mattn/go-isatty v0.0.17 // indirect
	github.com/mattn/go-runewidth v0.0.4 // indirect
	github.com/matttproud/golang_protobuf_extensions v1.0.4 // indirect
	github.com/mgutz/ansi v0.0.0-20170206155736-9520e82c474b // indirect
	github.com/miekg/dns v1.1.50 // indirect
	github.com/mikioh/tcpinfo v0.0.0-20190314235526-30a79bb1804b // indirect
	github.com/mikioh/tcpopt v0.0.0-20190314235656-172688c1accc // indirect
	github.com/minio/sha256-simd v1.0.0 // indirect
	github.com/mr-tron/base58 v1.2.0 // indirect
	github.com/multiformats/go-base32 v0.1.0 // indirect
	github.com/multiformats/go-base36 v0.2.0 // indirect
	github.com/multiformats/go-multiaddr-fmt v0.1.0 // indirect
	github.com/multiformats/go-multistream v0.4.1 // indirect
	github.com/multiformats/go-varint v0.0.7 // indirect
	github.com/onsi/ginkgo/v2 v2.5.1 // indirect
	github.com/opencontainers/runtime-spec v1.0.2 // indirect
	github.com/openzipkin/zipkin-go v0.4.1 // indirect
	github.com/pmezard/go-difflib v1.0.0 // indirect
	github.com/polydawn/refmt v0.89.0 // indirect
	github.com/prometheus/client_model v0.3.0 // indirect
	github.com/prometheus/common v0.37.0 // indirect
	github.com/prometheus/procfs v0.8.0 // indirect
	github.com/prometheus/statsd_exporter v0.22.7 // indirect
	github.com/quic-go/qpack v0.4.0 // indirect
	github.com/quic-go/qtls-go1-19 v0.2.1 // indirect
	github.com/quic-go/qtls-go1-20 v0.1.1 // indirect
	github.com/quic-go/quic-go v0.33.0 // indirect
	github.com/quic-go/webtransport-go v0.5.2 // indirect
	github.com/raulk/go-watchdog v1.3.0 // indirect
	github.com/rs/cors v1.7.0 // indirect
	github.com/samber/lo v1.36.0 // indirect
	github.com/spaolacci/murmur3 v1.1.0 // indirect
	github.com/texttheater/golang-levenshtein v0.0.0-20180516184445-d188e65d659e // indirect
	github.com/tidwall/match v1.1.1 // indirect
	github.com/tidwall/pretty v1.2.0 // indirect
	github.com/ucarion/urlpath v0.0.0-20200424170820-7ccc79b76bbb // indirect
	github.com/whyrusleeping/base32 v0.0.0-20170828182744-c30ac30633cc // indirect
	github.com/whyrusleeping/cbor-gen v0.0.0-20230126041949-52956bd4c9aa // indirect
	github.com/whyrusleeping/chunker v0.0.0-20181014151217-fe64bd25879f // indirect
	github.com/whyrusleeping/go-keyspace v0.0.0-20160322163242-5b898ac5add1 // indirect
	go.opentelemetry.io/otel/exporters/otlp/internal/retry v1.14.0 // indirect
	go.opentelemetry.io/otel/exporters/otlp/otlptrace v1.14.0 // indirect
	go.opentelemetry.io/otel/metric v0.37.0 // indirect
	go.opentelemetry.io/proto/otlp v0.19.0 // indirect
	go.uber.org/atomic v1.10.0 // indirect
	go.uber.org/multierr v1.10.0 // indirect
	go4.org v0.0.0-20230225012048-214862532bf5 // indirect
	golang.org/x/exp v0.0.0-20230213192124-5e25df0256eb // indirect
	golang.org/x/net v0.8.0 // indirect
	golang.org/x/oauth2 v0.4.0 // indirect
	golang.org/x/term v0.6.0 // indirect
	golang.org/x/text v0.8.0 // indirect
	golang.org/x/tools v0.6.0 // indirect
	golang.org/x/xerrors v0.0.0-20220907171357-04be3eba64a2 // indirect
	google.golang.org/appengine v1.6.7 // indirect
	google.golang.org/genproto v0.0.0-20230110181048-76db0878b65f // indirect
	google.golang.org/grpc v1.53.0 // indirect
	google.golang.org/protobuf v1.30.0 // indirect
	gopkg.in/square/go-jose.v2 v2.5.1 // indirect
	gopkg.in/yaml.v2 v2.4.0 // indirect
	gopkg.in/yaml.v3 v3.0.1 // indirect
	lukechampine.com/blake3 v1.1.7 // indirect
	nhooyr.io/websocket v1.8.7 // indirect
)

go 1.18
